…
More details about the in-house MS/MS library can be found at
[PhenolicsDB](https://github.com/CooperstoneLab/PhenolicsDB), while a
representative GNPS molecular network can be found in this
[repository](https://cytoscape.gnps2.org/process?task=1b4d04e4234d47f38ad8681da8307b91).

## Pythochemical target list

Briefly, we collected full scan data $MS^1$ in both polarities (positive
and negative), to achieve a greater metabolome coverage. In the
following table you will find the list of identified metabolites in each
polarity.

### Negative polarity

    ## # A tibble: 25 × 5
    ##    peak_label                    mz_mean     mz_width    rt intensity_threshold
    ##    <chr>                         <chr>          <dbl> <dbl>               <dbl>
    ##  1 4-Hydroxybenzaldehyde         121.0294794       10   150                1000
    ##  2 3,4 dihydroxybenzoic acid     153.0193087       10   112                1000
    ##  3 3,5-dihydroxybenzoic acid     153.0193087       10   112                1000
    ##  4 Protocatechiuc acid           153.0193087       10   112                1000
    ##  5 2,4,6- Trihydroxybenzaldehyde 153.0193087       10   159                1000
    ##  6 p-Coumaric acid               163.04004         10   163                1000
    ##  7 Quercetin                     301.0353          10   217                1000
    ##  8 Chlorogenic acid              353.08778         10   135                1000
    ##  9 Cyanidin-3-O-rutinoside       594.1589          10   136                1000
    ## 10 Rutin                         609.14608         10   166                1000
    ## # ℹ 15 more rows
